<?xml version="1.0" encoding="UTF-8" standalone="no"?>
<!DOCTYPE svg PUBLIC "-//W3C//DTD SVG 1.1//EN" "http://www.w3.org/Graphics/SVG/1.1/DTD/svg11.dtd">
<svg width="100%" height="100%" viewBox="0 0 900 700" version="1.1" xmlns="http://www.w3.org/2000/svg" xmlns:xlink="http://www.w3.org/1999/xlink" xml:space="preserve" xmlns:serif="http://www.serif.com/" style="fill-rule:evenodd;clip-rule:evenodd;stroke-linecap:round;stroke-linejoin:round;stroke-miterlimit:1.5;">
    <g transform="matrix(0.930329,0,0,0.930329,114.986,-15.2003)">
        <rect x="99" y="91" width="522" height="522" style="fill:rgb(246,246,246);"/>
        <clipPath id="_clip1">
            <rect x="99" y="91" width="522" height="522"/>
        </clipPath>
        <g clip-path="url(#_clip1)">
            <g transform="matrix(1.19076,0,0,1.22434,-179.823,-100.184)">
                <rect x="519.531" y="462.439" width="183.72" height="149.001" style="fill:none;stroke:rgb(255,200,0);stroke-width:1.78px;stroke-dasharray:1.78,7.12,0,0;"/>
            </g>
            <g transform="matrix(1.95467,0,0,1.22434,-939.814,-100.184)">
                <rect x="519.531" y="462.439" width="183.72" height="149.001" style="fill:none;stroke:rgb(0,171,255);stroke-width:1.32px;stroke-dasharray:1.32,5.27,0,0;"/>
            </g>
            <g transform="matrix(2.09947,0,0,2.62708,-1041.65,-1144.31)">
                <rect x="519.531" y="462.439" width="183.72" height="149.001" style="fill:none;stroke:rgb(255,0,50);stroke-width:0.9px;stroke-dasharray:0.9,3.62,0,0;"/>
            </g>
            <g transform="matrix(2.09947,0,0,2.62708,-652.176,-1144.31)">
                <rect x="519.531" y="462.439" width="183.72" height="149.001" style="fill:none;stroke:rgb(0,255,37);stroke-width:0.9px;stroke-dasharray:0.9,3.62,0,0;"/>
            </g>
        </g>
        <rect x="99" y="91" width="522" height="522" style="fill:none;stroke:black;stroke-width:1.07px;"/>
    </g>
    <g transform="matrix(0.930329,0,0,0.930329,65.6791,531.873)">
        <text x="102.916px" y="47.537px" style="font-family:'PTSerif-Regular', 'PT Serif', sans-serif;font-size:20px;">(0,0)</text>
    </g>
    <g transform="matrix(0.930329,0,0,0.930329,604.339,531.873)">
        <text x="102.916px" y="47.537px" style="font-family:'PTSerif-Regular', 'PT Serif', sans-serif;font-size:20px;">(0,1)</text>
    </g>
    <g transform="matrix(0.930329,0,0,0.930329,406.687,408.337)">
        <text x="86.676px" y="47.537px" style="font-family:'PTSerif-Regular', 'PT Serif', sans-serif;font-size:20px;">(0.3,0.6)</text>
    </g>
    <g transform="matrix(0.930329,0,0,0.930329,65.6791,12.7497)">
        <text x="102.916px" y="47.537px" style="font-family:'PTSerif-Regular', 'PT Serif', sans-serif;font-size:20px;">(1,0)</text>
    </g>
    <g transform="matrix(0.930329,0,0,0.930329,604.339,12.7497)">
        <text x="102.916px" y="47.537px" style="font-family:'PTSerif-Regular', 'PT Serif', sans-serif;font-size:20px;">(1,1)</text>
    </g>
    <g transform="matrix(0.930329,0,0,0.930329,-62.5507,502.103)">
        <text x="161.163px" y="42.133px" style="font-family:'PTSerif-Bold', 'PT Serif', sans-serif;font-weight:700;font-size:24px;">f(0,0) = 2</text>
    </g>
    <g transform="matrix(0.930329,0,0,0.930329,568.569,502.103)">
        <text x="161.163px" y="42.133px" style="font-family:'PTSerif-Bold', 'PT Serif', sans-serif;font-weight:700;font-size:24px;">f(0,1) = 3</text>
    </g>
    <g transform="matrix(0.930329,0,0,0.930329,-62.5507,57.4055)">
        <text x="161.163px" y="42.133px" style="font-family:'PTSerif-Bold', 'PT Serif', sans-serif;font-weight:700;font-size:24px;">f(1,0) = 4</text>
    </g>
    <g transform="matrix(0.930329,0,0,0.930329,568.569,57.4055)">
        <text x="161.163px" y="42.133px" style="font-family:'PTSerif-Bold', 'PT Serif', sans-serif;font-weight:700;font-size:24px;">f(1,1) = 8</text>
    </g>
    <g transform="matrix(1.39933,0,0,1.39933,-60.0963,-68.6585)">
        <circle cx="190.938" cy="98.703" r="9.22" style="fill:rgb(255,200,0);"/>
    </g>
    <g transform="matrix(1.39933,0,0,1.39933,425.1,-68.6585)">
        <circle cx="190.938" cy="98.703" r="9.22" style="fill:rgb(0,171,255);"/>
    </g>
    <g transform="matrix(1.39933,0,0,1.39933,-60.0963,416.973)">
        <circle cx="190.938" cy="98.703" r="9.22" style="fill:rgb(0,255,37);"/>
    </g>
    <g transform="matrix(1.39933,0,0,1.39933,425.1,416.973)">
        <circle cx="190.938" cy="98.703" r="9.22" style="fill:rgb(255,0,50);"/>
    </g>
    <g transform="matrix(0.930329,0,0,0.930329,101.492,104.693)">
        <path d="M435.583,335.127L467.052,335.127" style="fill:none;stroke:black;stroke-width:1.07px;"/>
        <g transform="matrix(6.12323e-17,1,-1,6.12323e-17,786.444,-116.19)">
            <path d="M435.583,335.127L467.052,335.127" style="fill:none;stroke:black;stroke-width:1.07px;"/>
        </g>
    </g>
    <g transform="matrix(4.84429e-17,0.791133,-0.791133,4.84429e-17,723.036,-186.627)">
        <text x="521.898px" y="284.168px" style="font-family:'PTSerif-Bold', 'PT Serif', sans-serif;font-weight:700;font-size:21.167px;fill:rgb(132,132,132);">0.7</text>
    </g>
    <g transform="matrix(4.84429e-17,0.791133,-0.791133,4.84429e-17,723.036,68.8318)">
        <text x="521.898px" y="284.168px" style="font-family:'PTSerif-Bold', 'PT Serif', sans-serif;font-weight:700;font-size:21.167px;fill:rgb(132,132,132);">0.3</text>
    </g>
    <g transform="matrix(0.930329,0,0,0.930329,46.2971,-32.2611)">
        <text x="323.668px" y="504.426px" style="font-family:'PTSerif-Bold', 'PT Serif', sans-serif;font-weight:700;font-size:18px;fill:rgb(132,132,132);">0.6</text>
    </g>
    <g transform="matrix(0.930329,0,0,0.930329,297.629,-30.2807)">
        <text x="323.668px" y="504.426px" style="font-family:'PTSerif-Bold', 'PT Serif', sans-serif;font-weight:700;font-size:18px;fill:rgb(132,132,132);">0.4</text>
    </g>
    <g transform="matrix(1,0,0,1,269.017,-6.95814)">
        <text x="-156.792px" y="659.762px" style="font-family:'PTSerif-Regular', 'PT Serif', sans-serif;font-size:24px;">f(0.3,<tspan x="-102.24px -96.408px " y="659.762px 659.762px "> 0</tspan>.6) = 2 <tspan x="-13.776px " y="659.762px ">*</tspan></text>
        <text x="2.256px" y="659.762px" style="font-family:'PTSerif-Regular', 'PT Serif', sans-serif;font-size:24px;fill:rgb(0,214,31);">0.7</text>
        <text x="39.408px" y="659.762px" style="font-family:'PTSerif-Regular', 'PT Serif', sans-serif;font-size:24px;"><tspan x="39.408px " y="659.762px ">*</tspan></text>
        <text x="55.44px" y="659.762px" style="font-family:'PTSerif-Regular', 'PT Serif', sans-serif;font-size:24px;fill:rgb(0,214,31);">0.4</text>
        <text x="93.552px" y="659.762px" style="font-family:'PTSerif-Regular', 'PT Serif', sans-serif;font-size:24px;">+ 4 <tspan x="129.84px " y="659.762px ">*</tspan></text>
        <text x="145.872px" y="659.762px" style="font-family:'PTSerif-Regular', 'PT Serif', sans-serif;font-size:24px;fill:rgb(204,160,0);">0.3</text>
        <text x="183.024px" y="659.762px" style="font-family:'PTSerif-Regular', 'PT Serif', sans-serif;font-size:24px;"><tspan x="183.024px " y="659.762px ">*</tspan></text>
        <text x="199.056px" y="659.762px" style="font-family:'PTSerif-Regular', 'PT Serif', sans-serif;font-size:24px;fill:rgb(204,160,0);">0.4</text>
        <text x="237.168px" y="659.762px" style="font-family:'PTSerif-Regular', 'PT Serif', sans-serif;font-size:24px;">+ 8 <tspan x="273.456px " y="659.762px ">*</tspan></text>
        <text x="289.488px" y="659.762px" style="font-family:'PTSerif-Regular', 'PT Serif', sans-serif;font-size:24px;fill:rgb(0,171,255);">0.3</text>
        <text x="326.64px" y="659.762px" style="font-family:'PTSerif-Regular', 'PT Serif', sans-serif;font-size:24px;"><tspan x="326.64px " y="659.762px ">*</tspan></text>
        <text x="342.672px" y="659.762px" style="font-family:'PTSerif-Regular', 'PT Serif', sans-serif;font-size:24px;fill:rgb(0,171,255);">0.6</text>
        <text x="380.784px" y="659.762px" style="font-family:'PTSerif-Regular', 'PT Serif', sans-serif;font-size:24px;">+ 3 <tspan x="417.072px " y="659.762px ">*</tspan></text>
        <text x="433.104px" y="659.762px" style="font-family:'PTSerif-Regular', 'PT Serif', sans-serif;font-size:24px;fill:rgb(255,0,50);">0.7</text>
        <text x="470.256px" y="659.762px" style="font-family:'PTSerif-Regular', 'PT Serif', sans-serif;font-size:24px;"><tspan x="470.256px " y="659.762px ">*</tspan></text>
        <text x="486.288px" y="659.762px" style="font-family:'PTSerif-Regular', 'PT Serif', sans-serif;font-size:24px;fill:rgb(255,0,50);">0.6</text>
    </g>
</svg>
